{
  "type": "service_account",
  "project_id": "cityalert-f4d9c",
  "private_key_id": "d48112b82602527a880f7623d8dce97bc1884d93",
  "private_key": "-----BEGIN PRIVATE KEY-----\nMIIEvQIBADANBgkqhkiG9w0BAQEFAASCBKcwggSjAgEAAoIBAQDUyzuaRyX6uR0U\nfNo+VCA714lNE/5Kg0SgWrau9YlUWq6H1Dek0AdY9EAHFGJD6cb7xHiIxyryf+Bk\nX+7+lx0CoH2pd6YUYBr9aCPv+LWQDHTnPqEfkrV1AWYvvo4Q0gNqk1Mdnkp+DeMr\nXMoJ68hvt4/ycaMxPGsi80PcAh375UUUQzfe3PQcZd2cwT+MIxS09q+65af09qQs\n9JCHLpVnbSjn/cLSUcE4sUlQ4e4tlOjwTSXAwqFtqbuf1kviIowfkelbMK+hvS19\nGa9ihU4owyLUZyRQlcUDXQ80akB4XwgVhQSRBHPdKQTWTntnRQdt1cLhCITDw7X2\n6BWD2yODAgMBAAECggEAX83IXeNehA1HvGuhzqINiSO3G06/FEkZYqC00vyVAbd6\nEIlJLBjE1hXRpd5Vh4H/JmcEZYBWI6vTGR3f+huK4h3jtaK60T2bqS9zzpzJEbup\n/lrCK/bfX3hry18dkxEanKcLqrATlcEm3+T8yY6wRSv90Qe8k3RCQBAKI0mIulli\nlp/Ht0Sj4DkxBITKjwL/GXjMnbZM8cKSNx7PknLUXvUkj8GgsinsxqxeCmdy6pt1\nCT+u67OqE89yU31frECqUNbNA91Iw87ikBJtHQ+f8gnkov+NFsDZuWV76H/Qg94v\nQ4n6/zg/l3LpBLYyk8Sjl0z5EY4hDUZbfOJTPWXqQQKBgQDt4KotqTFUdwod1ul+\nW6d1SlYgRXR+LLubn88RBBk2O/ncEwe7UB0uj6q67nSsc5H9Au5/a37XphxWfET3\n31fuDGOZry3hb97tLsocjqR4G7N79OXeVMJCMkTumqqEEaN+iCSrVcifIAlPeP7D\n6vfFLL1yU7sjayrHUcQXExd+EQKBgQDlAVwCLwnoGiF8gAS0k24fIEpV5XqCrZBs\nvy6RQKwfUJJHQQNIWzn6iz0s5FlBXJmlzM90zBs4XvTHjbt3kbhkfJHYirn40fbn\n3qgqJSIW/JPn79T7CTkJKCzr6ziNStLms80XZz72+klm+Dkc28yCcPuTbG0qIsrv\nakhqX/UEUwKBgEZ8+HCnXjLFQ34sHOyQhELBUFwnuKla4Azxgg5sxHvJsfSAvx3G\nU59kexcBahlf9bafk8S2OdP1KRiHonhA+nFTwn/b5SCUYd6uqr1jl2Dv9HOa0jLb\nsuSiuMJrmnOgNm5cMWGD/fsJJzkhhXzQt7L52vlxzlZkfzypAg5EXgXBAoGBALAl\nrYoYeHxJrTxAlF35kRjsE4Gis+tUaeTb4YvkvQCRTxLz1PyQ/zXSaEnhky4Ndjns\nIh7q6H0hvRLJ2EsOkVDp6J0xh/72Mf8Ea0GPsnsP6Qzck2xNGcwLVRJaqfM0fKjr\n4HOB/RKoTlGf2P5zqwkissAhBI8GmCY0EGOST7r1AoGAEsa+PiVgZK91MOsUp+Jq\nZCZkKz86bwN3Cr1Gzwt6g19dN1logID+FLiDnbQlYDzywkeDfi3UKVt74VXJg8zA\nwDfsWDJFsfQNbcy/GZYVvSI2UKJJoobm6rf37cOnSLZJSxHJnLU0wriVbe405zhS\nKWA1RfENu+4i4fl4mESuFsc=\n-----END PRIVATE KEY-----\n",
  "client_email": "server@cityalert-f4d9c.iam.gserviceaccount.com",
  "client_id": "111101011339708731806",
  "auth_uri": "https://accounts.google.com/o/oauth2/auth",
  "token_uri": "https://accounts.google.com/o/oauth2/token",
  "auth_provider_x509_cert_url": "https://www.googleapis.com/oauth2/v1/certs",
  "client_x509_cert_url": "https://www.googleapis.com/robot/v1/metadata/x509/server%40cityalert-f4d9c.iam.gserviceaccount.com"
}
