<?xml version="1.0" encoding="UTF-8"?>
<!DOCTYPE svg
PUBLIC "-//W3C//DTD SVG 1.1//EN"
       "http://www.w3.org/Graphics/SVG/1.1/DTD/svg11.dtd">
<svg viewBox="53 18 914 335" width="861px" height="317px" xmlns="http://www.w3.org/2000/svg" version="1.1">
   <line x1="311" y1="123" x2="301" y2="123" style="stroke:#0b0;stroke-width:1;"/>
   <line x1="246" y1="64" x2="236" y2="64" style="stroke:#0b0;stroke-width:1;"/>
   <line x1="301" y1="123" x2="246" y2="64" style="stroke:#0b0;stroke-width:1;"/>
   <line x1="303.5" y1="123" x2="307.03553390593" y2="126.53553390593" style="stroke:#0b0;stroke-width:2;"/>
   <line x1="303.5" y1="123" x2="307.03553390593" y2="119.46446609407" style="stroke:#0b0;stroke-width:2;"/>
   <line x1="241" y1="64" x2="244.53553390593" y2="67.535533905933" style="stroke:#0b0;stroke-width:2;"/>
   <line x1="241" y1="64" x2="244.53553390593" y2="60.464466094067" style="stroke:#0b0;stroke-width:2;"/>
   <line x1="504" y1="103" x2="494" y2="103" style="stroke:#bbb;stroke-width:1;"/>
   <line x1="495" y1="227" x2="505" y2="227" style="stroke:#bbb;stroke-width:1;"/>
   <line x1="494" y1="103" x2="495" y2="227" style="stroke:#bbb;stroke-width:1;"/>
   <line x1="496.5" y1="103" x2="500.03553390593" y2="106.53553390593" style="stroke:#bbb;stroke-width:2;"/>
   <line x1="496.5" y1="103" x2="500.03553390593" y2="99.464466094067" style="stroke:#bbb;stroke-width:2;"/>
   <line x1="500" y1="227" x2="496.46446609407" y2="230.53553390593" style="stroke:#bbb;stroke-width:2;"/>
   <line x1="500" y1="227" x2="496.46446609407" y2="223.46446609407" style="stroke:#bbb;stroke-width:2;"/>
   <line x1="504" y1="83" x2="494" y2="83" style="stroke:#bbb;stroke-width:1;"/>
   <line x1="487" y1="63" x2="477" y2="63" style="stroke:#bbb;stroke-width:1;"/>
   <line x1="494" y1="83" x2="487" y2="63" style="stroke:#bbb;stroke-width:1;"/>
   <line x1="496.5" y1="83" x2="500.03553390593" y2="86.535533905933" style="stroke:#bbb;stroke-width:2;"/>
   <line x1="496.5" y1="83" x2="500.03553390593" y2="79.464466094067" style="stroke:#bbb;stroke-width:2;"/>
   <line x1="482" y1="63" x2="485.53553390593" y2="66.535533905933" style="stroke:#bbb;stroke-width:2;"/>
   <line x1="482" y1="63" x2="485.53553390593" y2="59.464466094067" style="stroke:#bbb;stroke-width:2;"/>
   <rect width="166" height="20" x="505" y="197" style="fill:#007;stroke:black;"/>
   <text width="166" height="20" x="510" y="211" style="fill:#fff;" font-family="Arial" font-size="16px"> districts</text>
   <rect width="166" height="20" x="505" y="217" style="fill:#aea;stroke:black;"/>
   <text width="166" height="20" x="510" y="231" style="fill:black;" font-family="Arial" font-size="16px">id</text>
   <rect width="166" height="20" x="505" y="237" style="fill:none;stroke:black;"/>
   <text width="166" height="20" x="510" y="251" style="fill:black;" font-family="Arial" font-size="16px">name</text>
   <rect width="166" height="20" x="505" y="257" style="fill:none;stroke:black;"/>
   <text width="166" height="20" x="510" y="271" style="fill:black;" font-family="Arial" font-size="16px">polygon</text>
   <rect width="166" height="20" x="745" y="36" style="fill:#007;stroke:black;"/>
   <text width="166" height="20" x="750" y="50" style="fill:#fff;" font-family="Arial" font-size="16px"> log</text>
   <rect width="166" height="20" x="745" y="56" style="fill:#aea;stroke:black;"/>
   <text width="166" height="20" x="750" y="70" style="fill:black;" font-family="Arial" font-size="16px">id</text>
   <rect width="166" height="20" x="745" y="76" style="fill:none;stroke:black;"/>
   <text width="166" height="20" x="750" y="90" style="fill:black;" font-family="Arial" font-size="16px">request</text>
   <rect width="166" height="20" x="745" y="96" style="fill:none;stroke:black;"/>
   <text width="166" height="20" x="750" y="110" style="fill:black;" font-family="Arial" font-size="16px">payload</text>
   <rect width="166" height="20" x="745" y="116" style="fill:none;stroke:black;"/>
   <text width="166" height="20" x="750" y="130" style="fill:black;" font-family="Arial" font-size="16px">response</text>
   <rect width="166" height="20" x="745" y="136" style="fill:none;stroke:black;"/>
   <text width="166" height="20" x="750" y="150" style="fill:black;" font-family="Arial" font-size="16px">timestamp</text>
   <rect width="166" height="20" x="311" y="33" style="fill:#007;stroke:black;"/>
   <text width="166" height="20" x="316" y="47" style="fill:#fff;" font-family="Arial" font-size="16px"> notifications</text>
   <rect width="166" height="20" x="311" y="53" style="fill:#aea;stroke:black;"/>
   <text width="166" height="20" x="316" y="67" style="fill:black;" font-family="Arial" font-size="16px">id</text>
   <rect width="166" height="20" x="311" y="73" style="fill:none;stroke:black;"/>
   <text width="166" height="20" x="316" y="87" style="fill:black;" font-family="Arial" font-size="16px">subject</text>
   <rect width="166" height="20" x="311" y="93" style="fill:none;stroke:black;"/>
   <text width="166" height="20" x="316" y="107" style="fill:black;" font-family="Arial" font-size="16px">description</text>
   <rect width="166" height="20" x="311" y="113" style="fill:none;stroke:black;"/>
   <text width="166" height="20" x="316" y="127" style="fill:black;" font-family="Arial" font-size="16px">typeID</text>
   <rect width="166" height="20" x="311" y="133" style="fill:none;stroke:black;"/>
   <text width="166" height="20" x="316" y="147" style="fill:black;" font-family="Arial" font-size="16px">schedule</text>
   <rect width="166" height="20" x="311" y="153" style="fill:none;stroke:black;"/>
   <text width="166" height="20" x="316" y="167" style="fill:black;" font-family="Arial" font-size="16px">activeFrom</text>
   <rect width="166" height="20" x="311" y="173" style="fill:none;stroke:black;"/>
   <text width="166" height="20" x="316" y="187" style="fill:black;" font-family="Arial" font-size="16px">activeUntil</text>
   <rect width="166" height="20" x="311" y="193" style="fill:none;stroke:black;"/>
   <text width="166" height="20" x="316" y="207" style="fill:black;" font-family="Arial" font-size="16px">sentAt</text>
   <rect width="166" height="20" x="311" y="213" style="fill:none;stroke:black;"/>
   <text width="166" height="20" x="316" y="227" style="fill:black;" font-family="Arial" font-size="16px">views</text>
   <rect width="166" height="20" x="504" y="33" style="fill:#007;stroke:black;"/>
   <text width="166" height="20" x="509" y="47" style="fill:#fff;" font-family="Arial" font-size="16px"> notifications_districts</text>
   <rect width="166" height="20" x="504" y="53" style="fill:#aea;stroke:black;"/>
   <text width="166" height="20" x="509" y="67" style="fill:black;" font-family="Arial" font-size="16px">id</text>
   <rect width="166" height="20" x="504" y="73" style="fill:none;stroke:black;"/>
   <text width="166" height="20" x="509" y="87" style="fill:black;" font-family="Arial" font-size="16px">notificationID</text>
   <rect width="166" height="20" x="504" y="93" style="fill:none;stroke:black;"/>
   <text width="166" height="20" x="509" y="107" style="fill:black;" font-family="Arial" font-size="16px">districtID</text>
   <rect width="166" height="20" x="504" y="113" style="fill:none;stroke:black;"/>
   <text width="166" height="20" x="509" y="127" style="fill:black;" font-family="Arial" font-size="16px">latitude</text>
   <rect width="166" height="20" x="504" y="133" style="fill:none;stroke:black;"/>
   <text width="166" height="20" x="509" y="147" style="fill:black;" font-family="Arial" font-size="16px">longitude</text>
   <rect width="166" height="20" x="504" y="153" style="fill:none;stroke:black;"/>
   <text width="166" height="20" x="509" y="167" style="fill:black;" font-family="Arial" font-size="16px">address</text>
   <rect width="166" height="20" x="70" y="34" style="fill:#007;stroke:black;"/>
   <text width="166" height="20" x="75" y="48" style="fill:#fff;" font-family="Arial" font-size="16px"> notification_types</text>
   <rect width="166" height="20" x="70" y="54" style="fill:#aea;stroke:black;"/>
   <text width="166" height="20" x="75" y="68" style="fill:black;" font-family="Arial" font-size="16px">id</text>
   <rect width="166" height="20" x="70" y="74" style="fill:none;stroke:black;"/>
   <text width="166" height="20" x="75" y="88" style="fill:black;" font-family="Arial" font-size="16px">img</text>
   <rect width="166" height="20" x="70" y="94" style="fill:none;stroke:black;"/>
   <text width="166" height="20" x="75" y="108" style="fill:black;" font-family="Arial" font-size="16px">name</text>
   <rect width="166" height="20" x="70" y="114" style="fill:none;stroke:black;"/>
   <text width="166" height="20" x="75" y="128" style="fill:black;" font-family="Arial" font-size="16px">selected</text>
   <rect width="166" height="20" x="70" y="134" style="fill:none;stroke:black;"/>
   <text width="166" height="20" x="75" y="148" style="fill:black;" font-family="Arial" font-size="16px">selectable</text>
   <rect width="166" height="20" x="70" y="154" style="fill:none;stroke:black;"/>
   <text width="166" height="20" x="75" y="168" style="fill:black;" font-family="Arial" font-size="16px">topic</text>
   <rect width="166" height="20" x="70" y="174" style="fill:none;stroke:black;"/>
   <text width="166" height="20" x="75" y="188" style="fill:black;" font-family="Arial" font-size="16px">description</text>
   <rect width="166" height="20" x="747" y="182" style="fill:#007;stroke:black;"/>
   <text width="166" height="20" x="752" y="196" style="fill:#fff;" font-family="Arial" font-size="16px"> terms</text>
   <rect width="166" height="20" x="747" y="202" style="fill:#aea;stroke:black;"/>
   <text width="166" height="20" x="752" y="216" style="fill:black;" font-family="Arial" font-size="16px">id</text>
   <rect width="166" height="20" x="747" y="222" style="fill:none;stroke:black;"/>
   <text width="166" height="20" x="752" y="236" style="fill:black;" font-family="Arial" font-size="16px">text</text>
   <rect width="166" height="20" x="68" y="220" style="fill:#007;stroke:black;"/>
   <text width="166" height="20" x="73" y="234" style="fill:#fff;" font-family="Arial" font-size="16px"> users</text>
   <rect width="166" height="20" x="68" y="240" style="fill:#aea;stroke:black;"/>
   <text width="166" height="20" x="73" y="254" style="fill:black;" font-family="Arial" font-size="16px">id</text>
   <rect width="166" height="20" x="68" y="260" style="fill:none;stroke:black;"/>
   <text width="166" height="20" x="73" y="274" style="fill:black;" font-family="Arial" font-size="16px">username</text>
   <rect width="166" height="20" x="68" y="280" style="fill:none;stroke:black;"/>
   <text width="166" height="20" x="73" y="294" style="fill:black;" font-family="Arial" font-size="16px">password</text>
   <rect width="166" height="20" x="68" y="300" style="fill:none;stroke:black;"/>
   <text width="166" height="20" x="73" y="314" style="fill:black;" font-family="Arial" font-size="16px">type</text>
   <rect width="166" height="20" x="249" y="258" style="fill:#007;stroke:black;"/>
   <text width="166" height="20" x="254" y="272" style="fill:#fff;" font-family="Arial" font-size="16px"> user_notification_types</text>
   <rect width="166" height="20" x="249" y="278" style="fill:none;stroke:black;"/>
   <text width="166" height="20" x="254" y="292" style="fill:black;" font-family="Arial" font-size="16px">userID</text>
   <rect width="166" height="20" x="249" y="298" style="fill:none;stroke:black;"/>
   <text width="166" height="20" x="254" y="312" style="fill:black;" font-family="Arial" font-size="16px">notificationTypeID</text>
</svg>
